<svg width="18" height="18" viewBox="0 0 18 18" fill="none" xmlns="http://www.w3.org/2000/svg">
<path d="M8.59024 2.7002C5.29941 2.7002 2.64551 5.51269 2.64551 9.00019C2.64551 12.4877 5.29941 15.3002 8.59024 15.3002C11.8811 15.3002 14.535 12.4877 14.535 9.00019C14.535 5.51269 11.8811 2.7002 8.59024 2.7002ZM8.59024 14.5502C5.68865 14.5502 3.35321 12.0377 3.35321 9.00019C3.35321 5.96269 5.68865 3.4502 8.59024 3.4502C11.4918 3.4502 13.8273 5.92519 13.8273 9.00019C13.8273 12.0752 11.4918 14.5502 8.59024 14.5502ZM10.9257 9.3377C10.9257 9.5627 10.7841 9.7127 10.5718 9.7127H8.27178C8.05946 9.7127 7.91792 9.5627 7.91792 9.3377V6.7502C7.91792 6.5252 8.05946 6.3752 8.27178 6.3752C8.48409 6.3752 8.62563 6.5252 8.62563 6.7502V8.9627H10.5718C10.7487 8.9627 10.9257 9.1127 10.9257 9.3377Z" fill="#333333"/>
</svg>
