<svg width="43" height="43" viewBox="0 0 43 43" fill="none" xmlns="http://www.w3.org/2000/svg">
<path d="M34.4 31.8917L28.2187 27.1437C29.6521 25.2625 30.4583 23.0229 30.4583 20.5146C30.4583 14.4229 25.5312 9.40625 19.35 9.40625C13.1687 9.40625 8.33124 14.4229 8.33124 20.5146C8.33124 26.6062 13.2583 31.6229 19.4396 31.6229C22.3958 31.6229 25.0833 30.4583 27.0542 28.5771L33.325 33.4146C33.5042 33.5042 33.6833 33.5937 33.8625 33.5937C34.1312 33.5937 34.4 33.5042 34.5792 33.2354C34.8479 32.7875 34.7583 32.25 34.4 31.8917ZM19.35 29.8312C14.2437 29.8312 10.0333 25.7104 10.0333 20.5146C10.0333 15.3187 14.1542 11.1979 19.35 11.1979C24.4562 11.1979 28.6667 15.3187 28.6667 20.5146C28.6667 25.7104 24.4562 29.8312 19.35 29.8312Z" fill="#3263E2"/>
</svg>
